-------------------------------------------------------------------------------
Test set: com.luxoft.dnepr.courses.regular.unit5.EmployeeDaoImplTest
-------------------------------------------------------------------------------
Tests run: 5, Failures: 0, Errors: 0, Skipped: 0, Time elapsed: 0.003 sec
