-------------------------------------------------------------------------------
Test set: com.luxoft.dnepr.courses.regular.unit3.WalletTest
-------------------------------------------------------------------------------
Tests run: 4, Failures: 0, Errors: 0, Skipped: 0, Time elapsed: 0.002 sec
